^E:\MOBILE\TAPSERVE\TAP & SERVE\CLASSES\GAMELAYER.CPP
E:\MOBILE\TAPSERVE\TAP & SERVE\PROJ.WIN32\DEBUG.WIN32\GAMELAYER.OBJ
^E:\MOBILE\TAPSERVE\TAP & SERVE\CLASSES\HOMELAYER.CPP
E:\MOBILE\TAPSERVE\TAP & SERVE\PROJ.WIN32\DEBUG.WIN32\HOMELAYER.OBJ
^E:\MOBILE\TAPSERVE\TAP & SERVE\CLASSES\HOMESCENE.CPP
E:\MOBILE\TAPSERVE\TAP & SERVE\PROJ.WIN32\DEBUG.WIN32\HOMESCENE.OBJ
^E:\MOBILE\TAPSERVE\TAP & SERVE\CLASSES\MENUSCENE.CPP
E:\MOBILE\TAPSERVE\TAP & SERVE\PROJ.WIN32\DEBUG.WIN32\MENUSCENE.OBJ
^E:\MOBILE\TAPSERVE\TAP & SERVE\PROJ.WIN32\MAIN.CPP
E:\MOBILE\TAPSERVE\TAP & SERVE\PROJ.WIN32\DEBUG.WIN32\MAIN.OBJ
^E:\MOBILE\TAPSERVE\TAP & SERVE\CLASSES\APPDELEGATE.CPP
E:\MOBILE\TAPSERVE\TAP & SERVE\PROJ.WIN32\DEBUG.WIN32\VC120.PDB
E:\MOBILE\TAPSERVE\TAP & SERVE\PROJ.WIN32\DEBUG.WIN32\VC120.IDB
E:\MOBILE\TAPSERVE\TAP & SERVE\PROJ.WIN32\DEBUG.WIN32\APPDELEGATE.OBJ
