^E:\MOBILE\TAPSERVE\TAP & SERVE\PROJ.WIN32\DEBUG.WIN32\APPDELEGATE.OBJ|E:\MOBILE\TAPSERVE\TAP & SERVE\PROJ.WIN32\DEBUG.WIN32\GAME.RES|E:\MOBILE\TAPSERVE\TAP & SERVE\PROJ.WIN32\DEBUG.WIN32\GAMELAYER.OBJ|E:\MOBILE\TAPSERVE\TAP & SERVE\PROJ.WIN32\DEBUG.WIN32\HOMELAYER.OBJ|E:\MOBILE\TAPSERVE\TAP & SERVE\PROJ.WIN32\DEBUG.WIN32\HOMESCENE.OBJ|E:\MOBILE\TAPSERVE\TAP & SERVE\PROJ.WIN32\DEBUG.WIN32\LIBBOX2D.LIB|E:\MOBILE\TAPSERVE\TAP & SERVE\PROJ.WIN32\DEBUG.WIN32\LIBCOCOS2D.LIB|E:\MOBILE\TAPSERVE\TAP & SERVE\PROJ.WIN32\DEBUG.WIN32\LIBSPINE.LIB|E:\MOBILE\TAPSERVE\TAP & SERVE\PROJ.WIN32\DEBUG.WIN32\MAIN.OBJ|E:\MOBILE\TAPSERVE\TAP & SERVE\PROJ.WIN32\DEBUG.WIN32\MENUSCENE.OBJ
C:\PROGRAM FILES (X86)\MICROSOFT SDKS\WINDOWS\V7.1A\LIB\OPENGL32.LIB
E:\MOBILE\TAPSERVE\TAP & SERVE\PROJ.WIN32\DEBUG.WIN32\GLEW32.LIB
E:\MOBILE\TAPSERVE\TAP & SERVE\PROJ.WIN32\DEBUG.WIN32\LIBZLIB.LIB
E:\MOBILE\TAPSERVE\TAP & SERVE\PROJ.WIN32\DEBUG.WIN32\LIBWEBP.LIB
E:\MOBILE\TAPSERVE\TAP & SERVE\PROJ.WIN32\DEBUG.WIN32\LIBICONV.LIB
E:\MOBILE\TAPSERVE\TAP & SERVE\PROJ.WIN32\DEBUG.WIN32\FREETYPE.LIB
C:\PROGRAM FILES (X86)\MICROSOFT SDKS\WINDOWS\V7.1A\LIB\WINMM.LIB
C:\PROGRAM FILES (X86)\MICROSOFT SDKS\WINDOWS\V7.1A\LIB\WS2_32.LIB
E:\MOBILE\TAPSERVE\TAP & SERVE\PROJ.WIN32\DEBUG.WIN32\LIBBOX2D.LIB
E:\MOBILE\TAPSERVE\TAP & SERVE\PROJ.WIN32\DEBUG.WIN32\LIBSPINE.LIB
C:\PROGRAM FILES (X86)\MICROSOFT SDKS\WINDOWS\V7.1A\LIB\KERNEL32.LIB
C:\PROGRAM FILES (X86)\MICROSOFT SDKS\WINDOWS\V7.1A\LIB\USER32.LIB
C:\PROGRAM FILES (X86)\MICROSOFT SDKS\WINDOWS\V7.1A\LIB\GDI32.LIB
C:\PROGRAM FILES (X86)\MICROSOFT SDKS\WINDOWS\V7.1A\LIB\WINSPOOL.LIB
C:\PROGRAM FILES (X86)\MICROSOFT SDKS\WINDOWS\V7.1A\LIB\COMDLG32.LIB
C:\PROGRAM FILES (X86)\MICROSOFT SDKS\WINDOWS\V7.1A\LIB\ADVAPI32.LIB
C:\PROGRAM FILES (X86)\MICROSOFT SDKS\WINDOWS\V7.1A\LIB\SHELL32.LIB
C:\PROGRAM FILES (X86)\MICROSOFT SDKS\WINDOWS\V7.1A\LIB\OLE32.LIB
C:\PROGRAM FILES (X86)\MICROSOFT SDKS\WINDOWS\V7.1A\LIB\OLEAUT32.LIB
C:\PROGRAM FILES (X86)\MICROSOFT SDKS\WINDOWS\V7.1A\LIB\UUID.LIB
C:\PROGRAM FILES (X86)\MICROSOFT SDKS\WINDOWS\V7.1A\LIB\ODBC32.LIB
C:\PROGRAM FILES (X86)\MICROSOFT SDKS\WINDOWS\V7.1A\LIB\ODBCCP32.LIB
E:\MOBILE\TAPSERVE\TAP & SERVE\PROJ.WIN32\DEBUG.WIN32\GAME.RES
E:\MOBILE\TAPSERVE\TAP & SERVE\PROJ.WIN32\DEBUG.WIN32\APPDELEGATE.OBJ
E:\MOBILE\TAPSERVE\TAP & SERVE\PROJ.WIN32\DEBUG.WIN32\GAMELAYER.OBJ
E:\MOBILE\TAPSERVE\TAP & SERVE\PROJ.WIN32\DEBUG.WIN32\HOMELAYER.OBJ
E:\MOBILE\TAPSERVE\TAP & SERVE\PROJ.WIN32\DEBUG.WIN32\HOMESCENE.OBJ
E:\MOBILE\TAPSERVE\TAP & SERVE\PROJ.WIN32\DEBUG.WIN32\MENUSCENE.OBJ
E:\MOBILE\TAPSERVE\TAP & SERVE\PROJ.WIN32\DEBUG.WIN32\MAIN.OBJ
E:\MOBILE\TAPSERVE\TAP & SERVE\PROJ.WIN32\DEBUG.WIN32\LIBCOCOS2D.LIB
C:\WINDOWS\GLOBALIZATION\SORTING\SORTDEFAULT.NLS
E:\VISUAL STUDIO\VC\BIN\1036\LINKUI.DLL
E:\MOBILE\TAPSERVE\TAP & SERVE\PROJ.WIN32\DEBUG.WIN32\LIBPNG.LIB
E:\MOBILE\TAPSERVE\TAP & SERVE\PROJ.WIN32\DEBUG.WIN32\LIBJPEG.LIB
E:\MOBILE\TAPSERVE\TAP & SERVE\PROJ.WIN32\DEBUG.WIN32\LIBTIFF.LIB
E:\MOBILE\TAPSERVE\TAP & SERVE\PROJ.WIN32\DEBUG.WIN32\GLFW3.LIB
E:\MOBILE\TAPSERVE\TAP & SERVE\PROJ.WIN32\DEBUG.WIN32\LIBCHIPMUNK.LIB
E:\VISUAL STUDIO\VC\LIB\MSVCPRTD.LIB
E:\VISUAL STUDIO\VC\LIB\MSVCRTD.LIB
E:\VISUAL STUDIO\VC\LIB\OLDNAMES.LIB
C:\WINDOWS\SYSTEM32\TZRES.DLL
C:\PROGRAM FILES (X86)\MICROSOFT SDKS\WINDOWS\V7.1A\BIN\RC.EXE
E:\VISUAL STUDIO\VC\BIN\CVTRES.EXE
